Controller_Top_Level/simulation/qsim/controller.msim.vcd
$comment
	File created using the following command:
		vcd file controller.msim.vcd -direction
$end
$date
	Thu Oct 17 21:30:34 2013
$end
$version
	ModelSim Version 10.1d
$end
$timescale
	1ps
$end
$scope module controller_vlg_vec_tst $end
$var reg 8 ! IN [7:0] $end
$var reg 1 " clk $end
$var reg 1 # rst $end
$var wire 1 $ IR_out [7] $end
$var wire 1 % IR_out [6] $end
$var wire 1 & IR_out [5] $end
$var wire 1 ' IR_out [4] $end
$var wire 1 ( IR_out [3] $end
$var wire 1 ) IR_out [2] $end
$var wire 1 * IR_out [1] $end
$var wire 1 + IR_out [0] $end
$var wire 1 , MD_out [7] $end
$var wire 1 - MD_out [6] $end
$var wire 1 . MD_out [5] $end
$var wire 1 / MD_out [4] $end
$var wire 1 0 MD_out [3] $end
$var wire 1 1 MD_out [2] $end
$var wire 1 2 MD_out [1] $end
$var wire 1 3 MD_out [0] $end
$var wire 1 4 MEM_out [7] $end
$var wire 1 5 MEM_out [6] $end
$var wire 1 6 MEM_out [5] $end
$var wire 1 7 MEM_out [4] $end
$var wire 1 8 MEM_out [3] $end
$var wire 1 9 MEM_out [2] $end
$var wire 1 : MEM_out [1] $end
$var wire 1 ; MEM_out [0] $end
$var wire 1 < OUT [7] $end
$var wire 1 = OUT [6] $end
$var wire 1 > OUT [5] $end
$var wire 1 ? OUT [4] $end
$var wire 1 @ OUT [3] $end
$var wire 1 A OUT [2] $end
$var wire 1 B OUT [1] $end
$var wire 1 C OUT [0] $end
$var wire 1 D PC_out [7] $end
$var wire 1 E PC_out [6] $end
$var wire 1 F PC_out [5] $end
$var wire 1 G PC_out [4] $end
$var wire 1 H PC_out [3] $end
$var wire 1 I PC_out [2] $end
$var wire 1 J PC_out [1] $end
$var wire 1 K PC_out [0] $end
$var wire 1 L inst_err $end
$var wire 1 M ledr_out [7] $end
$var wire 1 N ledr_out [6] $end
$var wire 1 O ledr_out [5] $end
$var wire 1 P ledr_out [4] $end
$var wire 1 Q ledr_out [3] $end
$var wire 1 R ledr_out [2] $end
$var wire 1 S ledr_out [1] $end
$var wire 1 T ledr_out [0] $end
$var wire 1 U state [5] $end
$var wire 1 V state [4] $end
$var wire 1 W state [3] $end
$var wire 1 X state [2] $end
$var wire 1 Y state [1] $end
$var wire 1 Z state [0] $end
$var wire 1 [ state_err $end
$var wire 1 \ sampler $end
$scope module i1 $end
$var wire 1 ] gnd $end
$var wire 1 ^ vcc $end
$var wire 1 _ unknown $end
$var tri1 1 ` devclrn $end
$var tri1 1 a devpor $end
$var tri1 1 b devoe $end
$var wire 1 c alu_unit|Add0~6_combout $end
$var wire 1 d alu_unit|Add0~8_combout $end
$var wire 1 e alu_unit|Add0~10_combout $end
$var wire 1 f alu_unit|Add0~12_combout $end
$var wire 1 g alu_unit|Add0~14_combout $end
$var wire 1 h alu_unit|Add1~0_combout $end
$var wire 1 i alu_unit|Add1~5 $end
$var wire 1 j alu_unit|Add1~6_combout $end
$var wire 1 k alu_unit|Add1~7 $end
$var wire 1 l alu_unit|Add1~8_combout $end
$var wire 1 m alu_unit|Add1~9 $end
$var wire 1 n alu_unit|Add1~10_combout $end
$var wire 1 o alu_unit|Add1~11 $end
$var wire 1 p alu_unit|Add1~12_combout $end
$var wire 1 q alu_unit|Add1~13 $end
$var wire 1 r alu_unit|Add1~14_combout $end
$var wire 1 s control_unit|state[4]~3_combout $end
$var wire 1 t control_unit|WideOr1~0_combout $end
$var wire 1 u control_unit|Mux4~1_combout $end
$var wire 1 v control_unit|Mux3~2_combout $end
$var wire 1 w control_unit|Mux3~3_combout $end
$var wire 1 x control_unit|Mux3~4_combout $end
$var wire 1 y control_unit|Selector1~0_combout $end
$var wire 1 z control_unit|Selector1~1_combout $end
$var wire 1 { control_unit|Decoder2~4_combout $end
$var wire 1 | control_unit|Decoder2~5_combout $end
$var wire 1 } control_unit|WideOr13~0_combout $end
$var wire 1 ~ alu_unit|Mux8~2_combout $end
$var wire 1 !! alu_unit|Mux8~5_combout $end
$var wire 1 "! alu_unit|Equal1~0_combout $end
$var wire 1 #! alu_unit|Equal1~1_combout $end
$var wire 1 $! alu_unit|Equal1~2_combout $end
$var wire 1 %! alu_unit|Equal1~3_combout $end
$var wire 1 &! alu_unit|Equal1~4_combout $end
$var wire 1 '! alu_unit|Y~0_combout $end
$var wire 1 (! alu_unit|Y~6_combout $end
$var wire 1 )! REG_file|Mux7~0_combout $end
$var wire 1 *! REG_file|file[2][2]~regout $end
$var wire 1 +! REG_file|file[0][2]~regout $end
$var wire 1 ,! REG_file|Mux5~0_combout $end
$var wire 1 -! REG_file|file[3][4]~regout $end
$var wire 1 .! REG_file|Mux2~0_combout $end
$var wire 1 /! REG_file|file[2][6]~regout $end
$var wire 1 0! REG_file|file[0][6]~regout $end
$var wire 1 1! REG_file|Mux1~0_combout $end
$var wire 1 2! REG_file|file[1][7]~regout $end
$var wire 1 3! REG_file|file[0][7]~regout $end
$var wire 1 4! REG_file|Mux0~0_combout $end
$var wire 1 5! REG_file|Mux8~0_combout $end
$var wire 1 6! REG_file|Mux9~0_combout $end
$var wire 1 7! REG_file|Mux9~1_combout $end
$var wire 1 8! REG_file|Mux12~0_combout $end
$var wire 1 9! REG_file|Mux13~0_combout $end
$var wire 1 :! REG_file|Mux14~0_combout $end
$var wire 1 ;! file_mux|Mux7~5_combout $end
$var wire 1 <! file_mux|Mux7~6_combout $end
$var wire 1 =! control_unit|WideOr7~0_combout $end
$var wire 1 >! file_mux|Mux6~2_combout $end
$var wire 1 ?! file_mux|Mux5~2_combout $end
$var wire 1 @! file_mux|Mux4~2_combout $end
$var wire 1 A! file_mux|Mux4~3_combout $end
$var wire 1 B! file_mux|Mux3~2_combout $end
$var wire 1 C! file_mux|Mux3~3_combout $end
$var wire 1 D! file_mux|Mux1~2_combout $end
$var wire 1 E! file_mux|Mux1~3_combout $end
$var wire 1 F! alu_unit|ovr~3_combout $end
$var wire 1 G! file_mux|Mux7~8_combout $end
$var wire 1 H! file_mux|Mux6~5_combout $end
$var wire 1 I! file_mux|Mux5~5_combout $end
$var wire 1 J! file_mux|Mux4~5_combout $end
$var wire 1 K! file_mux|Mux3~5_combout $end
$var wire 1 L! file_mux|Mux1~5_combout $end
$var wire 1 M! control_unit|Mux0~0_combout $end
$var wire 1 N! control_unit|Mux0~1_combout $end
$var wire 1 O! clk~combout $end
$var wire 1 P! clk~clkctrl_outclk $end
$var wire 1 Q! control_unit|Mux3~0_combout $end
$var wire 1 R! control_unit|state[4]~0_combout $end
$var wire 1 S! PC|OUT[0]~8_combout $end
$var wire 1 T! control_unit|Mux2~2_combout $end
$var wire 1 U! control_unit|Mux2~3_combout $end
$var wire 1 V! control_unit|state[2]~1_combout $end
$var wire 1 W! PC|OUT[2]~14 $end
$var wire 1 X! PC|OUT[3]~15_combout $end
$var wire 1 Y! MA_addr|MA[4]~6_combout $end
$var wire 1 Z! PC|OUT[3]~16 $end
$var wire 1 [! PC|OUT[4]~17_combout $end
$var wire 1 \! rst~combout $end
$var wire 1 ]! rst~clkctrl_outclk $end
$var wire 1 ^! control_unit|Selector0~0_combout $end
$var wire 1 _! REG_file|file[3][7]~feeder_combout $end
$var wire 1 `! control_unit|WideOr13~2_combout $end
$var wire 1 a! control_unit|WideOr8~2_combout $end
$var wire 1 b! MA_addr|MA[6]~8_combout $end
$var wire 1 c! MA_addr|MA[7]~9_combout $end
$var wire 1 d! control_unit|Decoder2~2_combout $end
$var wire 1 e! control_unit|Decoder2~6_combout $end
$var wire 1 f! file_mux|Mux7~2_combout $end
$var wire 1 g! file_mux|Mux7~3_combout $end
$var wire 1 h! file_mux|Mux7~4_combout $end
$var wire 1 i! alu_unit|Y~1_combout $end
$var wire 1 j! REG_file|file[1][0]~feeder_combout $end
$var wire 1 k! REG_file|Decoder0~1_combout $end
$var wire 1 l! REG_file|file[1][0]~regout $end
$var wire 1 m! REG_file|Decoder0~0_combout $end
$var wire 1 n! REG_file|file[2][0]~regout $end
$var wire 1 o! REG_file|Decoder0~2_combout $end
$var wire 1 p! REG_file|file[0][0]~regout $end
$var wire 1 q! REG_file|Mux15~0_combout $end
$var wire 1 r! REG_file|Mux15~1_combout $end
$var wire 1 s! control_unit|WideOr8~0_combout $end
$var wire 1 t! control_unit|WideOr8~1_combout $end
$var wire 1 u! REG_file|B[0]~0_combout $end
$var wire 1 v! alu_unit|Add1~1 $end
$var wire 1 w! alu_unit|Add1~2_combout $end
$var wire 1 x! file_mux|Mux6~3_combout $end
$var wire 1 y! control_unit|WideOr7~1_combout $end
$var wire 1 z! file_mux|Mux6~4_combout $end
$var wire 1 {! REG_file|file[1][1]~regout $end
$var wire 1 |! REG_file|file[0][1]~regout $end
$var wire 1 }! REG_file|Mux6~0_combout $end
$var wire 1 ~! REG_file|file[2][1]~feeder_combout $end
$var wire 1 !" REG_file|file[2][1]~regout $end
$var wire 1 "" REG_file|Mux6~1_combout $end
$var wire 1 #" REG_file|file[3][2]~feeder_combout $end
$var wire 1 $" REG_file|file[3][2]~regout $end
$var wire 1 %" REG_file|Mux13~1_combout $end
$var wire 1 &" alu_unit|Y~2_combout $end
$var wire 1 '" alu_unit|Add1~3 $end
$var wire 1 (" alu_unit|Add1~4_combout $end
$var wire 1 )" file_mux|Mux5~3_combout $end
$var wire 1 *" file_mux|Mux5~4_combout $end
$var wire 1 +" REG_file|file[1][2]~feeder_combout $end
$var wire 1 ," REG_file|file[1][2]~regout $end
$var wire 1 -" file_mux|Mux4~4_combout $end
$var wire 1 ." REG_file|file[2][3]~regout $end
$var wire 1 /" REG_file|file[0][3]~regout $end
$var wire 1 0" REG_file|file[1][3]~regout $end
$var wire 1 1" REG_file|Mux4~0_combout $end
$var wire 1 2" REG_file|file[3][3]~feeder_combout $end
$var wire 1 3" REG_file|file[3][3]~regout $end
$var wire 1 4" REG_file|Mux4~1_combout $end
$var wire 1 5" file_mux|Mux3~4_combout $end
$var wire 1 6" REG_file|file[2][4]~regout $end
$var wire 1 7" REG_file|file[0][4]~regout $end
$var wire 1 8" REG_file|Mux3~0_combout $end
$var wire 1 9" REG_file|file[1][4]~regout $end
$var wire 1 :" REG_file|Mux3~1_combout $end
$var wire 1 ;" REG_file|file[1][5]~regout $end
$var wire 1 <" REG_file|file[0][5]~regout $end
$var wire 1 =" REG_file|Mux10~0_combout $end
$var wire 1 >" REG_file|Mux10~1_combout $end
$var wire 1 ?" alu_unit|Y~5_combout $end
$var wire 1 @" file_mux|Mux2~5_combout $end
$var wire 1 A" file_mux|Mux2~2_combout $end
$var wire 1 B" file_mux|Mux2~3_combout $end
$var wire 1 C" file_mux|Mux2~4_combout $end
$var wire 1 D" REG_file|file[3][5]~feeder_combout $end
$var wire 1 E" REG_file|file[3][5]~regout $end
$var wire 1 F" REG_file|file[2][5]~regout $end
$var wire 1 G" REG_file|Mux2~1_combout $end
$var wire 1 H" file_mux|Mux1~4_combout $end
$var wire 1 I" REG_file|file[1][6]~regout $end
$var wire 1 J" REG_file|file[3][6]~feeder_combout $end
$var wire 1 K" REG_file|file[3][6]~regout $end
$var wire 1 L" REG_file|Mux1~1_combout $end
$var wire 1 M" REG_file|Mux5~1_combout $end
$var wire 1 N" REG_file|Decoder0~3_combout $end
$var wire 1 O" REG_file|file[3][7]~regout $end
$var wire 1 P" REG_file|Mux0~1_combout $end
$var wire 1 Q" file_mux|Mux0~5_combout $end
$var wire 1 R" file_mux|Mux0~2_combout $end
$var wire 1 S" alu_unit|Y~7_combout $end
$var wire 1 T" file_mux|Mux0~3_combout $end
$var wire 1 U" file_mux|Mux0~4_combout $end
$var wire 1 V" REG_file|file[2][7]~regout $end
$var wire 1 W" REG_file|Mux8~1_combout $end
$var wire 1 X" REG_file|file[3][1]~feeder_combout $end
$var wire 1 Y" REG_file|file[3][1]~regout $end
$var wire 1 Z" REG_file|Mux14~1_combout $end
$var wire 1 [" alu_unit|LessThan0~1_cout $end
$var wire 1 \" alu_unit|LessThan0~3_cout $end
$var wire 1 ]" alu_unit|LessThan0~5_cout $end
$var wire 1 ^" alu_unit|LessThan0~7_cout $end
$var wire 1 _" alu_unit|LessThan0~9_cout $end
$var wire 1 `" alu_unit|LessThan0~11_cout $end
$var wire 1 a" alu_unit|LessThan0~13_cout $end
$var wire 1 b" alu_unit|LessThan0~14_combout $end
$var wire 1 c" alu_unit|neg~2_combout $end
$var wire 1 d" control_unit|WideOr13~1_combout $end
$var wire 1 e" control_unit|WideOr4~0_combout $end
$var wire 1 f" REG_file|Mux11~0_combout $end
$var wire 1 g" REG_file|Mux11~1_combout $end
$var wire 1 h" alu_unit|Y~4_combout $end
$var wire 1 i" alu_unit|Mux8~9_combout $end
$var wire 1 j" REG_file|Mux12~1_combout $end
$var wire 1 k" alu_unit|Y~3_combout $end
$var wire 1 l" alu_unit|Mux8~8_combout $end
$var wire 1 m" alu_unit|Mux8~7_combout $end
$var wire 1 n" alu_unit|Mux8~10_combout $end
$var wire 1 o" alu_unit|Mux8~1_combout $end
$var wire 1 p" alu_unit|Mux8~0_combout $end
$var wire 1 q" alu_unit|Mux8~3_combout $end
$var wire 1 r" alu_unit|Add0~1 $end
$var wire 1 s" alu_unit|Add0~3 $end
$var wire 1 t" alu_unit|Add0~5 $end
$var wire 1 u" alu_unit|Add0~7 $end
$var wire 1 v" alu_unit|Add0~9 $end
$var wire 1 w" alu_unit|Add0~11 $end
$var wire 1 x" alu_unit|Add0~13 $end
$var wire 1 y" alu_unit|Add0~15 $end
$var wire 1 z" alu_unit|Add0~16_combout $end
$var wire 1 {" alu_unit|Add0~0_combout $end
$var wire 1 |" alu_unit|Add0~2_combout $end
$var wire 1 }" alu_unit|Add0~4_combout $end
$var wire 1 ~" alu_unit|Mux8~4_combout $end
$var wire 1 !# alu_unit|ovr~2_combout $end
$var wire 1 "# alu_unit|Mux8~6_combout $end
$var wire 1 ## alu_unit|Mux8~11_combout $end
$var wire 1 $# control_unit|WideOr4~combout $end
$var wire 1 %# control_unit|Selector0~1_combout $end
$var wire 1 &# control_unit|Decoder2~3_combout $end
$var wire 1 '# control_unit|Selector1~2_combout $end
$var wire 1 (# PC|OUT[7]~10_combout $end
$var wire 1 )# PC|OUT[4]~18 $end
$var wire 1 *# PC|OUT[5]~19_combout $end
$var wire 1 +# MA_addr|MA[5]~7_combout $end
$var wire 1 ,# MA_addr|MA[3]~5_combout $end
$var wire 1 -# control_unit|WideOr2~0_combout $end
$var wire 1 .# control_unit|WideOr12~0_combout $end
$var wire 1 /# control_unit|WideOr12~1_combout $end
$var wire 1 0# PC|OUT[0]~9 $end
$var wire 1 1# PC|OUT[1]~12 $end
$var wire 1 2# PC|OUT[2]~13_combout $end
$var wire 1 3# MA_addr|MA[2]~4_combout $end
$var wire 1 4# MA_addr|WideOr0~0_combout $end
$var wire 1 5# MA_addr|WideOr0~1_combout $end
$var wire 1 6# MA_addr|MA[1]~3_combout $end
$var wire 1 7# control_unit|Decoder1~0_combout $end
$var wire 1 8# control_unit|inst_err~0_combout $end
$var wire 1 9# control_unit|state[4]~4_combout $end
$var wire 1 :# control_unit|Mux1~1_combout $end
$var wire 1 ;# control_unit|Mux1~0_combout $end
$var wire 1 <# control_unit|Mux1~2_combout $end
$var wire 1 =# control_unit|Mux1~3_combout $end
$var wire 1 ># control_unit|next_state~0_combout $end
$var wire 1 ?# control_unit|next_state~1_combout $end
$var wire 1 @# control_unit|WideOr3~0_combout $end
$var wire 1 A# control_unit|Mux4~0_combout $end
$var wire 1 B# control_unit|Mux4~2_combout $end
$var wire 1 C# control_unit|Mux3~1_combout $end
$var wire 1 D# control_unit|state[1]~2_combout $end
$var wire 1 E# control_unit|next_state~2_combout $end
$var wire 1 F# control_unit|WideOr6~0_combout $end
$var wire 1 G# control_unit|WideOr6~1_combout $end
$var wire 1 H# MA_addr|MA[0]~2_combout $end
$var wire 1 I# file_mux|Mux7~7_combout $end
$var wire 1 J# REG_file|file[3][0]~feeder_combout $end
$var wire 1 K# REG_file|file[3][0]~regout $end
$var wire 1 L# REG_file|Mux7~1_combout $end
$var wire 1 M# control_unit|WideOr0~0_combout $end
$var wire 1 N# control_unit|inst_err~1_combout $end
$var wire 1 O# control_unit|inst_err~2_combout $end
$var wire 1 P# control_unit|WideOr5~0_combout $end
$var wire 1 Q# PC|OUT[1]~11_combout $end
$var wire 1 R# PC|OUT[5]~20 $end
$var wire 1 S# PC|OUT[6]~21_combout $end
$var wire 1 T# PC|OUT[6]~22 $end
$var wire 1 U# PC|OUT[7]~23_combout $end
$var wire 1 V# led_out|ledr_out[0]~feeder_combout $end
$var wire 1 W# led_out|always0~0_combout $end
$var wire 1 X# led_out|always0~1_combout $end
$var wire 1 Y# led_out|ledr_out[3]~feeder_combout $end
$var wire 1 Z# led_out|ledr_out[4]~feeder_combout $end
$var wire 1 [# led_out|ledr_out[5]~feeder_combout $end
$var wire 1 \# led_out|ledr_out[7]~feeder_combout $end
$var wire 1 ]# Memory|altsyncram_component|auto_generated|q_b [7] $end
$var wire 1 ^# Memory|altsyncram_component|auto_generated|q_b [6] $end
$var wire 1 _# Memory|altsyncram_component|auto_generated|q_b [5] $end
$var wire 1 `# Memory|altsyncram_component|auto_generated|q_b [4] $end
$var wire 1 a# Memory|altsyncram_component|auto_generated|q_b [3] $end
$var wire 1 b# Memory|altsyncram_component|auto_generated|q_b [2] $end
$var wire 1 c# Memory|altsyncram_component|auto_generated|q_b [1] $end
$var wire 1 d# Memory|altsyncram_component|auto_generated|q_b [0] $end
$var wire 1 e# led_out|ledr_out [7] $end
$var wire 1 f# led_out|ledr_out [6] $end
$var wire 1 g# led_out|ledr_out [5] $end
$var wire 1 h# led_out|ledr_out [4] $end
$var wire 1 i# led_out|ledr_out [3] $end
$var wire 1 j# led_out|ledr_out [2] $end
$var wire 1 k# led_out|ledr_out [1] $end
$var wire 1 l# led_out|ledr_out [0] $end
$var wire 1 m# MD|Y [7] $end
$var wire 1 n# MD|Y [6] $end
$var wire 1 o# MD|Y [5] $end
$var wire 1 p# MD|Y [4] $end
$var wire 1 q# MD|Y [3] $end
$var wire 1 r# MD|Y [2] $end
$var wire 1 s# MD|Y [1] $end
$var wire 1 t# MD|Y [0] $end
$var wire 1 u# IR|Y [7] $end
$var wire 1 v# IR|Y [6] $end
$var wire 1 w# IR|Y [5] $end
$var wire 1 x# IR|Y [4] $end
$var wire 1 y# IR|Y [3] $end
$var wire 1 z# IR|Y [2] $end
$var wire 1 {# IR|Y [1] $end
$var wire 1 |# IR|Y [0] $end
$var wire 1 }# STATUS_reg|Y [7] $end
$var wire 1 ~# STATUS_reg|Y [6] $end
$var wire 1 !$ STATUS_reg|Y [5] $end
$var wire 1 "$ STATUS_reg|Y [4] $end
$var wire 1 #$ STATUS_reg|Y [3] $end
$var wire 1 $$ STATUS_reg|Y [2] $end
$var wire 1 %$ STATUS_reg|Y [1] $end
$var wire 1 &$ STATUS_reg|Y [0] $end
$var wire 1 '$ REG_file|A [7] $end
$var wire 1 ($ REG_file|A [6] $end
$var wire 1 )$ REG_file|A [5] $end
$var wire 1 *$ REG_file|A [4] $end
$var wire 1 +$ REG_file|A [3] $end
$var wire 1 ,$ REG_file|A [2] $end
$var wire 1 -$ REG_file|A [1] $end
$var wire 1 .$ REG_file|A [0] $end
$var wire 1 /$ control_unit|state [5] $end
$var wire 1 0$ control_unit|state [4] $end
$var wire 1 1$ control_unit|state [3] $end
$var wire 1 2$ control_unit|state [2] $end
$var wire 1 3$ control_unit|state [1] $end
$var wire 1 4$ control_unit|state [0] $end
$var wire 1 5$ REG_file|B [7] $end
$var wire 1 6$ REG_file|B [6] $end
$var wire 1 7$ REG_file|B [5] $end
$var wire 1 8$ REG_file|B [4] $end
$var wire 1 9$ REG_file|B [3] $end
$var wire 1 :$ REG_file|B [2] $end
$var wire 1 ;$ REG_file|B [1] $end
$var wire 1 <$ REG_file|B [0] $end
$var wire 1 =$ PC|OUT [7] $end
$var wire 1 >$ PC|OUT [6] $end
$var wire 1 ?$ PC|OUT [5] $end
$var wire 1 @$ PC|OUT [4] $end
$var wire 1 A$ PC|OUT [3] $end
$var wire 1 B$ PC|OUT [2] $end
$var wire 1 C$ PC|OUT [1] $end
$var wire 1 D$ PC|OUT [0] $end
$var wire 1 E$ Memory|altsyncram_component|auto_generated|ram_block1a0_PORTBDATAOUT_bus [7] $end
$var wire 1 F$ Memory|altsyncram_component|auto_generated|ram_block1a0_PORTBDATAOUT_bus [6] $end
$var wire 1 G$ Memory|altsyncram_component|auto_generated|ram_block1a0_PORTBDATAOUT_bus [5] $end
$var wire 1 H$ Memory|altsyncram_component|auto_generated|ram_block1a0_PORTBDATAOUT_bus [4] $end
$var wire 1 I$ Memory|altsyncram_component|auto_generated|ram_block1a0_PORTBDATAOUT_bus [3] $end
$var wire 1 J$ Memory|altsyncram_component|auto_generated|ram_block1a0_PORTBDATAOUT_bus [2] $end
$var wire 1 K$ Memory|altsyncram_component|auto_generated|ram_block1a0_PORTBDATAOUT_bus [1] $end
$var wire 1 L$ Memory|altsyncram_component|auto_generated|ram_block1a0_PORTBDATAOUT_bus [0] $end
$upscope $end
$upscope $end
$enddefinitions $end
#0
$dumpvars
bx !
0"
1#
0e#
0t#
0s#
0r#
0q#
0p#
0o#
0n#
0m#
0|#
0{#
0z#
0y#
0x#
0w#
0v#
0u#
0&$
0%$
0$$
z#$
z"$
z!$
z~#
z}#
0.$
0-$
0,$
0+$
0*$
0)$
0($
0'$
04$
03$
02$
01$
00$
0/$
0<$
0;$
0:$
09$
08$
07$
06$
05$
0D$
0C$
0B$
0A$
0@$
0?$
0>$
0=$
0L$
0K$
0J$
0I$
0H$
0G$
0F$
0E$
0+
0*
0)
0(
0'
0&
0%
0$
03
02
01
00
0/
0.
0-
0,
0;
0:
09
08
07
06
05
04
0C
0B
0A
0@
0?
0>
0=
0<
0K
0J
0I
0H
0G
0F
0E
0D
0L
0T
0S
0R
0Q
0P
0O
0N
0M
0Z
0Y
0X
0W
0V
0U
1[
x\
0]
1^
x_
1`
1a
1b
0c
0d
0e
0f
0g
0h
1i
0j
0k
0l
1m
0n
0o
0p
1q
0r
0s
0t
0u
0v
0w
0x
0y
0z
0{
0|
0}
0~
1!!
1"!
1#!
1$!
1%!
1&!
0'!
0(!
0)!
0*!
0+!
0,!
0-!
0.!
0/!
00!
01!
02!
03!
04!
05!
06!
07!
08!
09!
0:!
0;!
0<!
0=!
0>!
0?!
0@!
0A!
0B!
0C!
0D!
0E!
0F!
0G!
0H!
0I!
1J!
1K!
1L!
0M!
0N!
0O!
0P!
1Q!
0R!
1S!
1T!
0U!
0V!
0W!
0X!
0Y!
1Z!
0[!
1\!
1]!
0^!
0_!
0`!
0a!
0b!
0c!
1d!
0e!
0f!
0g!
0h!
0i!
0j!
0k!
0l!
0m!
0n!
0o!
0p!
0q!
0r!
0s!
0t!
1u!
1v!
0w!
0x!
0y!
0z!
0{!
0|!
0}!
0~!
0!"
0""
0#"
0$"
0%"
0&"
0'"
0("
0)"
0*"
0+"
0,"
0-"
0."
0/"
00"
01"
02"
03"
04"
05"
06"
07"
08"
09"
0:"
0;"
0<"
0="
0>"
0?"
1@"
0A"
0B"
0C"
0D"
0E"
0F"
0G"
0H"
0I"
0J"
0K"
0L"
0M"
0N"
0O"
0P"
1Q"
0R"
0S"
0T"
0U"
0V"
0W"
0X"
0Y"
0Z"
0["
1\"
0]"
1^"
0_"
1`"
0a"
0b"
0c"
0d"
0e"
0f"
0g"
0h"
1i"
0j"
0k"
1l"
1m"
1n"
0o"
0p"
1q"
0r"
1s"
0t"
1u"
0v"
1w"
0x"
1y"
0z"
0{"
0|"
0}"
1~"
0!#
0"#
1##
0$#
0%#
0&#
0'#
0(#
0)#
0*#
0+#
0,#
0-#
0.#
0/#
00#
11#
02#
03#
04#
05#
06#
07#
18#
09#
0:#
1;#
0<#
0=#
0>#
0?#
0@#
1A#
1B#
0C#
0D#
0E#
0F#
0G#
0H#
0I#
0J#
0K#
0L#
0M#
1N#
0O#
1P#
0Q#
1R#
0S#
0T#
0U#
0V#
1W#
0X#
0Y#
0Z#
0[#
0\#
0d#
0c#
0b#
0a#
0`#
0_#
0^#
0]#
0l#
0k#
0j#
0i#
0h#
0g#
0f#
$end
#10000
1"
0#
1O!
0\!
0]!
1P!
0\
0u!
#20000
0"
1#
0O!
1\!
1]!
0P!
1\
1u!
#30000
1"
1O!
1P!
0\
14$
0N#
1C#
0A#
1v
1Z
0P#
0B#
1x
1D#
0[
#40000
0"
0O!
0P!
1\
#50000
1"
1O!
1P!
0\
13$
04$
1F#
0;#
1.#
1U!
0T!
0Q!
0C#
1A#
1Y
0Z
1V!
0U!
1B#
0V!
#60000
0"
0O!
0P!
1\
#70000
1"
1O!
1P!
0\
14$
0A#
1>#
1;#
0.#
1&#
1e!
1T!
1w
0v
1Z
0B#
1'#
1U!
0x
1(#
1V!
0D#
#80000
0"
0O!
0P!
1\
#90000
1"
1O!
1P!
0\
03$
04$
1D$
12$
1N#
0F#
0>#
0&#
0e!
1z
0w
1s
1A#
1H#
10#
0S!
0d!
0Y
0Z
1K
1X
0'#
1x
19#
1B#
1Q#
0(#
1D#
#100000
0"
0O!
0P!
1\
#110000
1"
1O!
1P!
0\
14$
02$
0N#
0A#
09#
0z
1v
1d!
0U!
1Q!
0x
0s
1Z
0X
0B#
1x
0V!
1C#
0D#
1D#
#120000
0"
0O!
0P!
1\
#130000
1"
1O!
1P!
0\
13$
04$
1L$
1E$
1d#
1]#
1F#
0;#
1.#
1U!
0T!
0Q!
0C#
1A#
1I#
1U"
1Y
0Z
1;
14
1V!
0U!
1B#
1J#
1j!
1_!
0V!
#140000
0"
0O!
0P!
1\
#150000
1"
1O!
1P!
0\
14$
0A#
1>#
1;#
0.#
1&#
1e!
1T!
1w
0v
1Z
0B#
1'#
1U!
0x
1(#
1V!
0D#
#160000
0"
0O!
0P!
1\
#170000
1"
1O!
1P!
0\
1C$
03$
04$
1u#
0D$
12$
1|#
16#
01#
0Q#
1N#
0F#
0>#
0&#
0e!
1z
0w
1s
1A#
17#
0H#
00#
1S!
0d!
1J
0Y
0Z
1$
0K
1X
1+
12#
0'#
1x
19#
1B#
11#
1Q#
0(#
1D#
02#
#180000
0"
0O!
0P!
1\
#190000
1"
1O!
1P!
0\
14$
10$
02$
0N#
0A#
09#
1M!
0z
1v
08#
1'#
0U!
0x
0s
1Z
1V
0X
0B#
1N!
0'#
1x
1(#
0V!
0D#
1R!
0(#
1D#
#200000
0"
0O!
0P!
1\
#210000
1"
1O!
1P!
0\
13$
04$
0L$
1H$
0E$
0d#
1`#
0]#
1F#
1:#
1.#
1U!
1w
1A#
0I#
15"
0U"
1Y
0Z
0;
17
04
1G#
1<#
1/#
1V!
1B#
0J#
0j!
0_!
06#
1=#
#220000
0"
0O!
0P!
1\
#230000
1"
1O!
1P!
0\
14$
11$
12$
1p#
0A#
0;#
0.#
1&#
0T!
1=!
1}
1{
0w
0v
1^!
1u
0U!
0x
1Y!
1Z
1W
1X
1/
0<#
0/#
1`!
1x
0V!
0D#
0=#
1D#
#240000
0"
0O!
0P!
1\
#250000
1"
1O!
1P!
0\
01$
02$
0H$
0`#
1>#
1<#
0^!
0=!
0}
1w
0u
0:#
1%#
0N!
0x
05"
0W
0X
07
1?#
1=#
0%#
0`!
0B#
0<#
1(#
0R!
0D#
0(#
0=#
#260000
0"
0O!
0P!
1\
#270000
1"
1O!
1P!
0\
03$
04$
1/$
00$
1K$
1I$
1G$
1E$
1c#
1a#
1_#
1]#
0F#
0>#
1;#
0&#
1T!
1Q!
0M!
0{
0w
1A#
1s!
1P#
0G#
0?#
18#
1d!
1z!
1-"
1C"
1U"
0Y
0Z
1U
0V
1:
18
16
14
1G#
0P#
1V!
1R!
1t!
1a!
16#
0Y!
1X"
1~!
12"
1D"
1_!
1[
06#
1Y!
0u!
1k!
0[
#280000
0"
0O!
0P!
1\
#290000
1"
1O!
1P!
0\
0/$
10$
12$
1;"
10"
1{!
12!
1N#
0G#
1B#
0s!
0V!
0R!
08#
1u!
0d!
0a!
1U!
0T!
0Q!
1w
1z
1x
1s
1="
18!
1:!
15!
0U
1V
1X
16#
0Y!
0t!
1'#
0k!
1V!
0U!
0x
1D#
1>"
1j"
1Z"
1W"
1(#
0V!
0D#
#300000
0"
0O!
0P!
1\
#310000
1"
1O!
1P!
0\
14$
00$
1D$
02$
19$
1;$
15$
17$
0N#
0A#
1T!
0z
0w
1v
18#
0'#
1d!
1Q!
1H#
10#
0S!
0s
0^"
0#!
1k
1j
1c
1|"
0\"
1'"
1w!
0"!
1b"
0%!
1r
1g
0`"
0$!
1o
1n
1e
1Z
0V
1K
0X
0B#
1x
0(#
1C#
01#
0Q#
1_"
0&!
0m
1l
0~"
1]"
0i
1("
0m"
0!!
1a"
0q
1p
1D#
12#
0n
0j
0n"
0r
#320000
0"
0O!
0P!
1\
#330000
1"
1O!
1P!
0\
13$
04$
0K$
0I$
1H$
0G$
0E$
0c#
0a#
1`#
0_#
0]#
1F#
0;#
1.#
1U!
0T!
0Q!
0C#
1A#
0z!
0-"
15"
0C"
0U"
1Y
0Z
0:
08
17
06
04
1V!
0U!
1B#
0X"
0~!
02"
0D"
0_!
0V!
#340000
0"
0O!
0P!
1\
#350000
1"
1O!
1P!
0\
14$
1J$
1E$
1b#
1]#
0A#
1>#
1;#
0.#
1&#
1e!
1T!
1w
0v
1*"
1U"
1Z
19
14
0B#
1'#
1U!
0x
1+"
1#"
1_!
1(#
1V!
0D#
#360000
0"
0O!
0P!
1\
